index,stat,p_value,p_value_nofdrcorrection,-log10(p_value),log2FC,n_1,n_0
IF:CD11c+CD14+_MHCII+_PSGL1+_1,95.0,0.48551210823222685,0.015769838239480798,0.313799934709901,0.5669563426625626,15.0,22.0
IF:CD56+_NKG2c+__1,106.5,0.48551210823222685,0.017535320876164325,0.313799934709901,-1.2148704774499133,15.0,24.0
IF:CD56+_NKG2a+__1,110.0,0.48551210823222685,0.022407128581842642,0.313799934709901,0.5148013173605799,15.0,24.0
IF:CD56+_beta7+__1,120.0,0.48551210823222685,0.0429253113976711,0.313799934709901,0.37064612811771447,15.0,24.0
IF:CD11c+CD14-_MHCII+_BETA7+_1,115.0,0.48551210823222685,0.04432797563564149,0.313799934709901,0.26516951801998623,15.0,23.0
IF:CD11c+CD14-_MHCII+_ADAM8+_1,109.5,0.48551210823222685,0.044415719947222945,0.313799934709901,0.31943839264152807,15.0,22.0
IF:CD11c+CD14+_MHCII+_BETA7+_1,118.0,0.48551210823222685,0.05340931153180162,0.313799934709901,0.32132193013121846,15.0,23.0
IF:ratio_CD4-CD8_1,126.0,0.48551210823222685,0.061206433985086184,0.313799934709901,0.7383109212630083,15.0,24.0
IF:CD11c+CD14+_MHCII+_CD210+_1,121.5,0.48551210823222685,0.06574946322779705,0.313799934709901,0.22072252432750616,15.0,23.0
IF:CD19+_SLAN+__1,129.5,0.48551210823222685,0.07442648596961529,0.313799934709901,0.29477253538616455,15.0,24.0
IF:CD11c+CD14+_MHCII+_CCR9+_1,128.0,0.48551210823222685,0.09442000520851268,0.313799934709901,-1.0391297328135005,15.0,23.0
IF:CD3+_CD8+_IL15Ra+_1,142.0,0.48551210823222685,0.10434522156848197,0.313799934709901,-0.2527693746615327,15.0,25.0
IF:CD19+_CCR9+__1,136.0,0.48551210823222685,0.10459417514073571,0.313799934709901,-0.22198401351050334,15.0,24.0
IF:CD11c+CD14-_MHCII+_PSGL1+_1,125.5,0.48551210823222685,0.11379598868733304,0.313799934709901,0.18826382579724132,15.0,22.0
IF:CD3+_CD8+_Tie2+_1,144.5,0.48551210823222685,0.11753746372548274,0.313799934709901,-0.8803648966195192,15.0,25.0
IF:CD11c+CD14+_MHCII+_CCR10+_1,140.0,0.48551210823222685,0.12708758631745798,0.313799934709901,0.41811377603352806,15.0,24.0
IF:CD3+_CD4+_CCR10+_1,147.0,0.48551210823222685,0.1318815627759411,0.313799934709901,-1.5000983303161413,15.0,25.0
IF:CD56+_IL6R+__1,141.0,0.48551210823222685,0.13317406222914202,0.313799934709901,-0.3181618112783231,15.0,24.0
IF:CD19+_Tie2+__1,142.0,0.48551210823222685,0.13950815660568194,0.313799934709901,-0.42966105248105446,15.0,24.0
IF:CD3+_CD4+_IFNg+_1,142.5,0.48551210823222685,0.1427137720358682,0.313799934709901,-2.1420757186883677,15.0,24.0
IF:CD56+_SLAN+__1,143.0,0.48551210823222685,0.1459939089102686,0.313799934709901,0.17083400740255938,15.0,24.0
IF:CD3+_CD4+_CCR9+_1,150.0,0.48551210823222685,0.15060961753719837,0.313799934709901,-2.3532866978637546,15.0,25.0
IF:CD11c+CD14+_MHCII+_CD123+_1,138.0,0.48551210823222685,0.15493639826490663,0.313799934709901,0.28045322421146235,15.0,23.0
IF:CD56+_ADAM8+__1,134.0,0.48551210823222685,0.1553495697132256,0.313799934709901,0.2454631716765805,14.0,24.0
IF:CD11c+CD14+_MHCII+_SLAN+_1,145.5,0.48551210823222685,0.1631497516104859,0.313799934709901,-0.14326022128914673,15.0,24.0
IF:CD3+_CD8+_CXCR4+_1,152.0,0.48551210823222685,0.16406333856985106,0.313799934709901,-0.20530886607491272,15.0,25.0
IF:CD11c+CD14+_MHCII+_TSP1+_1,140.0,0.48551210823222685,0.16962460901019538,0.313799934709901,0.17828802703906899,15.0,23.0
IF:CD56+_CXCR4+__1,147.0,0.48551210823222685,0.1740601140350243,0.313799934709901,-0.5179842722693677,15.0,24.0
IF:CD3+_CD8+_LAG3+_1,148.0,0.48551210823222685,0.18158885730528157,0.313799934709901,0.22622876714657192,15.0,24.0
IF:CD56+_GRK2+__1,148.5,0.48551210823222685,0.18537373245337807,0.313799934709901,0.641438547533657,15.0,24.0
IF:CD11c+CD14+_MHCII+_ADAM8+_1,143.0,0.48551210823222685,0.19322929165079383,0.313799934709901,0.16927887886621917,15.0,23.0
IF:CD3+_CD8+_CCR9+_1,156.0,0.48551210823222685,0.19323039351022786,0.313799934709901,-0.4676679613135888,15.0,25.0
IF:CD3+_CD8+_IFNg+_1,150.0,0.48551210823222685,0.19722038864701785,0.313799934709901,-1.1071892460943498,15.0,24.0
IF:CD19+_TSP1+__1,153.0,0.48551210823222685,0.22208136493391561,0.313799934709901,0.2088305251155731,15.0,24.0
IF:CD19+_beta7+__1,153.5,0.48551210823222685,0.22642584367638463,0.313799934709901,0.006076624866640401,15.0,24.0
IF:CD19+_PSGL1+__1,147.0,0.48551210823222685,0.22765211157109816,0.313799934709901,0.44962773501493913,15.0,23.0
IF:CD56+_CD244+__1,154.0,0.48551210823222685,0.23077166080264438,0.313799934709901,-0.002546108349928744,15.0,24.0
IF:CD19+_IL6R+__1,154.0,0.48551210823222685,0.23082835141073066,0.313799934709901,-0.3656072848269831,15.0,24.0
IF:CD3+_CD8+_PSGL1+_1,161.0,0.48551210823222685,0.23377542620173014,0.313799934709901,-0.1486169428572035,15.0,25.0
IF:CD3+_CD8+_CD47+_1,161.0,0.48551210823222685,0.23379631151542413,0.313799934709901,0.10624554743913883,15.0,25.0
IF:CD11c+CD14-_MHCII+_SLAN+_1,154.5,0.48551210823222685,0.23523198044812293,0.313799934709901,-0.3780740401283067,15.0,24.0
IF:CD3+_CD8+_TIM3+_1,155.5,0.48551210823222685,0.24418914940536512,0.313799934709901,-0.8017989650976604,15.0,24.0
IF:CD3+_CD8+_CTLA4+_1,163.5,0.48551210823222685,0.25573345776151557,0.313799934709901,0.04959419779929242,15.0,25.0
IF:CD3+_CD4+_IL15Ra+_1,164.5,0.48551210823222685,0.2647806834261493,0.313799934709901,-1.6119092258719807,15.0,25.0
IF:CD11c+CD14+_MHCII+_CXCR4+_1,151.0,0.48551210823222685,0.2651920394497712,0.313799934709901,0.022483579941170007,15.0,23.0
IF:CD19+_CD47+__1,151.0,0.48551210823222685,0.26527080202261016,0.313799934709901,-0.08501791946894866,15.0,23.0
IF:CD3+_CD4+_ADAM8+_1,158.0,0.48551210823222685,0.26741446048432,0.313799934709901,0.21863316976954295,15.0,24.0
IF:CD19+_CCR10+__1,158.0,0.48551210823222685,0.26741446048432,0.313799934709901,0.27889855397623986,15.0,24.0
IF:CD3+_CD8+_TSP1+_1,166.5,0.48551210823222685,0.2807423396026727,0.313799934709901,0.12322500663473157,15.0,25.0
IF:CD3+_CD8+_SLAN+_1,166.5,0.48551210823222685,0.28340137659344944,0.313799934709901,-0.5076670188937447,15.0,25.0
IF:CD3+_CD8+_beta7+_1,166.5,0.48551210823222685,0.2834104739903377,0.313799934709901,0.06505857397516834,15.0,25.0
IF:CD11c+CD14-_MHCII+_CXCR4+_1,153.0,0.48551210823222685,0.285204894238671,0.313799934709901,-0.07810656918032333,15.0,23.0
IF:CD56+_TSP1+__1,149.0,0.48551210823222685,0.2877749377484153,0.313799934709901,0.20105929464660832,14.0,24.0
IF:CD3+_CD8+_CD210+_1,167.0,0.48551210823222685,0.28816814217206604,0.313799934709901,-0.10269940729438076,15.0,25.0
IF:CD3+_CD4+_TSP1+_1,168.5,0.48551210823222685,0.2965241689418054,0.313799934709901,0.21002206900653064,15.0,25.0
IF:CD11c+CD14-_MHCII+_CD210+_1,148.5,0.48551210823222685,0.3103071480251199,0.313799934709901,0.05652035500499153,15.0,22.0
IF:CD56+_CD210+__1,151.5,0.48551210823222685,0.31411894609037244,0.313799934709901,-0.10114411495746722,14.0,24.0
IF:CD11c+CD14-_MHCII+_CD123+_1,156.0,0.48551210823222685,0.31638742752847737,0.313799934709901,0.0653359046648534,15.0,23.0
IF:CD3+_CD8+_IL6R+_1,170.5,0.48551210823222685,0.3223889453296209,0.313799934709901,0.07477450937853636,15.0,25.0
IF:CD19+_CXCR4+__1,165.0,0.48551210823222685,0.3377619398903519,0.313799934709901,0.04443882508626018,15.0,24.0
IF:CD19+_GRK2+__1,158.0,0.48551210823222685,0.33793818490746885,0.313799934709901,0.3535650248624349,15.0,23.0
IF:CD3+_CD8+_CCR10+_1,172.5,0.48551210823222685,0.3426709093638857,0.313799934709901,-0.6305972398905926,15.0,25.0
IF:CD19+_IL15Ra+__1,165.5,0.48551210823222685,0.34297772875496757,0.313799934709901,0.05014036727562754,15.0,24.0
IF:CD11c+CD14-_MHCII+_IL15Ra+_1,159.0,0.48551210823222685,0.34890619451479943,0.313799934709901,0.3027860488733949,15.0,23.0
IF:CD56+_KIR+__1,166.5,0.48551210823222685,0.3537128588942974,0.313799934709901,0.21396059039246706,15.0,24.0
IF:CD3+_CD8+_ADAM8+_1,174.0,0.48551210823222685,0.35823381143185684,0.313799934709901,0.02917456711746169,15.0,25.0
IF:CD11c+CD14+_MHCII+_GRK2+_1,153.0,0.48551210823222685,0.3609997031425919,0.313799934709901,-0.10933858567272114,15.0,22.0
IF:CD3+_CD4+_SLAN+_1,162.5,0.48551210823222685,0.36265929703363387,0.313799934709901,-0.30634951418705836,14.0,25.0
IF:CD11c+CD14-_MHCII+_CD47+_1,153.5,0.48551210823222685,0.36680820507084627,0.313799934709901,-0.025961130866661186,15.0,22.0
IF:CD3+_CD4+_beta7+_1,175.0,0.48551210823222685,0.36871362717593525,0.313799934709901,0.04731576843736551,15.0,25.0
IF:CD56+_CCR10+__1,168.5,0.48551210823222685,0.375397650669538,0.313799934709901,-0.482132542835221,15.0,24.0
IF:CD19+_ADAM8+__1,168.5,0.48551210823222685,0.37540984581421016,0.313799934709901,-0.055108607960820954,15.0,24.0
IF:CD11c+CD14-_MHCII+_CCR10+_1,169.0,0.48551210823222685,0.3808975939521931,0.313799934709901,-0.0047976251050809715,15.0,24.0
IF:CD11c+CD14+_MHCII+_IL15Ra+_1,162.0,0.48551210823222685,0.3826009278601473,0.313799934709901,-0.6881221834733866,15.0,23.0
IF:CD11c+CD14-_MHCII+_TiE2+_1,162.0,0.48551210823222685,0.3826071623111427,0.313799934709901,0.10723146540651474,15.0,23.0
IF:CD11c+CD14-_MHCII+_IL6R+_1,155.0,0.48551210823222685,0.3844193268213526,0.313799934709901,0.019163121376838177,15.0,22.0
IF:CD3+_CD4+_CD47+_1,176.5,0.48551210823222685,0.38459404157745963,0.313799934709901,0.03543854940736857,15.0,25.0
IF:CD19+_CD210+__1,170.0,0.48551210823222685,0.39194956580959184,0.313799934709901,0.0002807750936542064,15.0,24.0
IF:CD56+_IL15Ra+__1,171.0,0.48551210823222685,0.40307386635821835,0.313799934709901,-0.7931224464145543,15.0,24.0
IF:CD11c+CD14-_MHCII+_GRK2+_1,157.0,0.48551210823222685,0.40825518508117886,0.313799934709901,0.03004211879249663,15.0,22.0
IF:CD3+_CD8+_IL17+_1,172.0,0.48551210823222685,0.4142922674169251,0.313799934709901,-0.2146346465743305,15.0,24.0
IF:CD3+_CD4+_IL17+_1,160.5,0.48551210823222685,0.4161109300587519,0.313799934709901,-0.5536120661669743,14.0,24.0
IF:CD3+_CD4+_CTLA4+_1,165.0,0.48551210823222685,0.41720523449175995,0.313799934709901,-0.043629318378787474,15.0,23.0
IF:CD11c+CD14+_MHCII+_CD47+_1,158.0,0.48551210823222685,0.4203111634937725,0.313799934709901,0.11100336523734455,15.0,22.0
IF:CD56+_CCR9+__1,161.0,0.48551210823222685,0.4220231433473657,0.313799934709901,-1.108094782286551,14.0,24.0
IF:CD56+_Tie2+__1,173.0,0.48551210823222685,0.42557244399134037,0.313799934709901,-0.22326633887352276,15.0,24.0
IF:CD11c+CD14-_MHCII+_CCR9+_1,159.0,0.48551210823222685,0.4324463430452854,0.313799934709901,-0.6650172510239609,15.0,22.0
IF:CD3+_CD4+_GRK2+_1,181.0,0.48551210823222685,0.4334336447965642,0.313799934709901,0.21880972097647833,15.0,25.0
IF:CD3+_CD4+_CXCR4+_1,181.0,0.48551210823222685,0.4334398313163771,0.313799934709901,-0.008311697555881459,15.0,25.0
IF:CD19+_CD244+__1,174.0,0.48551210823222685,0.43692452115033176,0.313799934709901,-0.6348322004915454,15.0,24.0
IF:CD56+_PSGL1+__1,174.5,0.48551210823222685,0.44261407312974904,0.313799934709901,-0.18765202086424004,15.0,24.0
IF:CD3+_CD8+_GRK2+_1,182.0,0.48551210823222685,0.4444514321696064,0.313799934709901,-0.022552166875394075,15.0,25.0
IF:CD3+_CD4+_Tie2+_1,182.5,0.48551210823222685,0.4499754588120316,0.313799934709901,-1.5175084369934775,15.0,25.0
IF:CD3+_CD8+_CD244+_1,183.0,0.48551210823222685,0.45550919546052826,0.313799934709901,-0.008038853574484861,15.0,25.0
IF:CD11c+CD14-_MHCII+_TSP1+_1,161.0,0.48551210823222685,0.45689058536119803,0.313799934709901,0.12192211004016329,15.0,22.0
IF:CD11c+CD14+_MHCII+_TiE2+_1,168.5,0.48551210823222685,0.4583721471000921,0.313799934709901,0.013344585194474234,15.0,23.0
IF:CD3+_CD4+_PSGL1+_1,184.0,0.48551210823222685,0.46660309839314773,0.313799934709901,0.012384467852688985,15.0,25.0
IF:CD11c+CD14+_MHCII+_IL6R+_1,162.0,0.48551210823222685,0.4691726442556151,0.313799934709901,0.025765092708555315,15.0,22.0
IF:CD3+_CD8+_PD1+_1,177.0,0.48551210823222685,0.4712323403430437,0.313799934709901,-0.06937356002511041,15.0,24.0
IF:CD3+_CD4+_IL6R+_1,185.5,0.4929518278937455,0.4832861057781818,0.3071955186580783,-0.072952415977241,15.0,25.0
IF:CD56+_CD47+__1,179.0,0.494426990934874,0.49424021504129656,0.3058978289910103,-0.017965994080808123,15.0,24.0
IF:CD3+_CD4+_CD210+_1,186.5,0.494426990934874,0.494426990934874,0.3058978289910103,-0.007971189803652301,15.0,25.0
