marker	FDR
CD3+_CD8+_CCR9+	0.677901437562758
CD56+_SLAN+_	0.677901437562758
CD3+_CD4+_CCR9+	0.677901437562758
CD56+_CCR9+_	0.677901437562758
CD3+_CD4+_beta7+	0.786842763576234
CD11c+CD14-_MHCII+_CCR10+	0.786842763576234
CD19+_beta7+_	0.786842763576234
CD3+_CD4+_IFNg+	0.786842763576234
CD3+_CD4+_ADAM8+	0.786842763576234
CD3+_CD8+_ADAM8+	0.786842763576234
CD11c+CD14+_MHCII+_GRK2+	0.786842763576234
CD19+_CD244+_	0.788257422192857
CD56+_beta7+_	0.788257422192857
CD19+_GRK2+_	0.971731962357767
CD19+_SLAN+_	0.985258065089632
CD11c+CD14+_MHCII+_CCR9+	0.985258065089632
CD11c+CD14+_MHCII+_CCR10+	0.985258065089632
CD11c+CD14-_MHCII+_CD123+	0.985258065089632
CD11c+CD14+_MHCII+_SLAN+	0.985258065089632
CD3+_CD4+_CTLA4+	0.985258065089632
CD11c+CD14+_MHCII+_TiE2+	0.985258065089632
CD11c+CD14-_MHCII+_ADAM8+	0.985258065089632
CD11c+CD14+_MHCII+_CD47+	0.985258065089632
CD11c+CD14-_MHCII+_PSGL1+	0.985258065089632
CD11c+CD14-_MHCII+_CD47+	0.985258065089632
CD3+_CD8+_beta7+	0.985258065089632
CD3+_CD8+_IL6R+	0.985258065089632
CD19+_CCR10+_	0.985258065089632
CD19+_CCR9+_	0.985258065089632
CD11c+CD14-_MHCII+_CCR9+	0.985258065089632
CD3+_CD8+_CCR10+	0.985258065089632
CD56+_KIR+_	0.985258065089632
CD11c+CD14+_MHCII+_ADAM8+	0.985258065089632
CD19+_PSGL1+_	0.985258065089632
CD3+_CD4+_TSP1+	0.985258065089632
CD11c+CD14-_MHCII+_TSP1+	0.985258065089632
CD56+_NKG2c+_	0.985258065089632
CD11c+CD14+_MHCII+_CD210+	0.985258065089632
CD19+_CD210+_	0.985258065089632
CD56+_CCR10+_	0.985258065089632
CD3+_CD8+_CD47+	0.985258065089632
CD3+_CD4+_IL6R+	0.985258065089632
CD56+_CD244+_	0.985258065089632
CD11c+CD14+_MHCII+_BETA7+	0.985258065089632
CD3+_CD8+_SLAN+	0.985258065089632
CD11c+CD14+_MHCII+_IL6R+	0.985258065089632
CD3+_CD4+_CXCR4+	0.985258065089632
CD3+_CD4+_CD47+	0.985258065089632
CD11c+CD14-_MHCII+_TiE2+	0.985258065089632
CD3+_CD8+_CD244+	0.985258065089632
CD3+_CD8+_IL17+	0.985258065089632
CD56+_IL15Ra+_	0.985258065089632
CD19+_ADAM8+_	0.985258065089632
CD11c+CD14+_MHCII+_PSGL1+	0.985258065089632
CD19+_TSP1+_	0.985258065089632
CD3+_CD4+_PSGL1+	0.985258065089632
CD11c+CD14-_MHCII+_GRK2+	0.985258065089632
CD56+_CD210+_	0.985258065089632
CD11c+CD14-_MHCII+_BETA7+	0.985258065089632
CD56+_PSGL1+_	0.985258065089632
CD11c+CD14+_MHCII+_CXCR4+	0.985258065089632
CD3+_CD8+_IFNg+	0.985258065089632
CD56+_TSP1+_	0.985258065089632
CD56+_IL6R+_	0.985258065089632
CD3+_CD4+_IL17+	0.985258065089632
CD11c+CD14+_MHCII+_IL15Ra+	0.985258065089632
CD19+_CD47+_	0.985258065089632
CD3+_CD8+_CTLA4+	0.985258065089632
CD3+_CD4+_CCR10+	0.985258065089632
CD56+_Tie2+_	0.985258065089632
CD11c+CD14-_MHCII+_SLAN+	0.985258065089632
CD3+_CD8+_LAG3+	0.985258065089632
CD3+_CD8+_IL15Ra+	0.985258065089632
CD11c+CD14-_MHCII+_IL6R+	0.985258065089632
CD3+_CD4+_GRK2+	0.985258065089632
CD56+_CD47+_	0.985258065089632
CD3+_CD8+_PD1+	0.985258065089632
CD11c+CD14+_MHCII+_CD123+	0.985258065089632
CD3+_CD4+_SLAN+	0.985258065089632
CD3+_CD8+_GRK2+	0.985258065089632
CD56+_GRK2+_	0.985258065089632
CD3+_CD8+_TSP1+	0.985258065089632
CD3+_CD8+_PSGL1+	0.985258065089632
CD11c+CD14-_MHCII+_IL15Ra+	0.985258065089632
CD19+_CXCR4+_	0.985258065089632
CD3+_CD4+_IL15Ra+	0.985258065089632
CD3+_CD8+_CD210+	0.985258065089632
CD3+_CD8+_Tie2+	0.985258065089632
CD3+_CD4+_Tie2+	0.985258065089632
CD3+_CD8+_TIM3+	0.985258065089632
CD11c+CD14+_MHCII+_TSP1+	0.985258065089632
ratio_CD4-CD8	0.985258065089632
CD56+_CXCR4+_	0.985258065089632
CD56+_ADAM8+_	0.985258065089632
CD19+_IL6R+_	0.985258065089632
CD3+_CD8+_CXCR4+	0.985258065089632
CD19+_IL15Ra+_	0.985258065089632
CD19+_Tie2+_	0.985258065089632
CD11c+CD14-_MHCII+_CXCR4+	0.985258065089632
CD11c+CD14-_MHCII+_CD210+	0.985258065089632
CD56+_NKG2a+_	0.997068093189349
CD3+_CD4+_CD210+	0.997068093189349
